{
  "version": 2,
  "projects": {
    "types": {
      "root": "libs/types",
      "sourceRoot": "libs/types/src",
      "projectType": "library",
      "targets": {
        "lint": {
          "executor": "@nrwl/linter:eslint",
          "outputs": ["{options.outputFile}"],
          "options": {
            "lintFilePatterns": ["libs/types/**/*.ts"]
          }
        },
        "test": {
          "executor": "@nrwl/jest:jest",
          "outputs": ["coverage/libs/types"],
          "options": {
            "jestConfig": "libs/types/jest.config.js",
            "passWithNoTests": true
          }
        }
      }
    },
    "user-saver": {
      "root": "apps/user-saver",
      "sourceRoot": "apps/user-saver/src",
      "projectType": "application",
      "targets": {
        "build": {
          "executor": "@nrwl/web:build",
          "outputs": ["{options.outputPath}"],
          "options": {
            "outputPath": "dist/apps/user-saver",
            "index": "apps/user-saver/src/index.html",
            "main": "apps/user-saver/src/main.tsx",
            "polyfills": "apps/user-saver/src/polyfills.ts",
            "tsConfig": "apps/user-saver/tsconfig.app.json",
            "assets": [
              "apps/user-saver/src/favicon.ico",
              "apps/user-saver/src/assets"
            ],
            "styles": [],
            "scripts": [],
            "webpackConfig": "@nrwl/react/plugins/webpack"
          },
          "configurations": {
            "production": {
              "fileReplacements": [
                {
                  "replace": "apps/user-saver/src/environments/environment.ts",
                  "with": "apps/user-saver/src/environments/environment.prod.ts"
                }
              ],
              "optimization": true,
              "outputHashing": "all",
              "sourceMap": false,
              "extractCss": true,
              "namedChunks": false,
              "extractLicenses": true,
              "vendorChunk": false,
              "budgets": [
                {
                  "type": "initial",
                  "maximumWarning": "500kb",
                  "maximumError": "1mb"
                }
              ]
            }
          }
        },
        "serve": {
          "executor": "@nrwl/web:dev-server",
          "options": {
            "buildTarget": "user-saver:build",
            "hmr": true
          },
          "configurations": {
            "production": {
              "buildTarget": "user-saver:build:production",
              "hmr": false
            }
          }
        },
        "lint": {
          "executor": "@nrwl/linter:eslint",
          "outputs": ["{options.outputFile}"],
          "options": {
            "lintFilePatterns": ["apps/user-saver/**/*.{ts,tsx,js,jsx}"]
          }
        },
        "test": {
          "executor": "@nrwl/jest:jest",
          "outputs": ["coverage/apps/user-saver"],
          "options": {
            "jestConfig": "apps/user-saver/jest.config.js",
            "passWithNoTests": true
          }
        }
      }
    },
    "user-saver-e2e": {
      "root": "apps/user-saver-e2e",
      "sourceRoot": "apps/user-saver-e2e/src",
      "projectType": "application",
      "targets": {
        "e2e": {
          "executor": "@nrwl/cypress:cypress",
          "options": {
            "cypressConfig": "apps/user-saver-e2e/cypress.json",
            "devServerTarget": "user-saver:serve"
          },
          "configurations": {
            "production": {
              "devServerTarget": "user-saver:serve:production"
            }
          }
        },
        "lint": {
          "executor": "@nrwl/linter:eslint",
          "outputs": ["{options.outputFile}"],
          "options": {
            "lintFilePatterns": ["apps/user-saver-e2e/**/*.{js,ts}"]
          }
        }
      }
    }
  },
  "cli": {
    "defaultCollection": "@nrwl/react"
  },
  "generators": {
    "@nrwl/react": {
      "application": {
        "style": "@emotion/styled",
        "linter": "eslint",
        "babel": true
      },
      "component": {
        "style": "@emotion/styled"
      },
      "library": {
        "style": "@emotion/styled",
        "linter": "eslint"
      }
    }
  },
  "defaultProject": "user-saver"
}
